


------------------------------------------------------------------------------------------------------------------------
REPORT 27th February 2020 04:13:12 PM 	 author id: 7005 - giuseppe.cardamone@uniurb.it
  total:			778
  graded ok: 		778
  graded ko: 		0
  completion ok: 	778
  completion ko: 	0
------------------------------------------------------------------------------------------------------------------------
27th February 2020 04:13:08 PM 	 userid: 530			grade: 100 		completion: 2		percole@libero.it
27th February 2020 04:13:08 PM 	 userid: 344			grade: 100 		completion: 2		sandra.quintili@gmail.com
27th February 2020 04:13:08 PM 	 userid: 245			grade: 100 		completion: 2		antonietta.simeone@istruzione.it
27th February 2020 04:13:08 PM 	 userid: 534			grade: 100 		completion: 2		caroni.antonella@gmail.com
27th February 2020 04:13:08 PM 	 userid: 258			grade: 100 		completion: 2		adele.dangelo@gmail.com
27th February 2020 04:13:08 PM 	 userid: 874			grade: 100 		completion: 2		domenicocontini85@gmail.com
27th February 2020 04:13:08 PM 	 userid: 59			grade: 100 		completion: 2		desimone.emi@gmail.com
27th February 2020 04:13:08 PM 	 userid: 640			grade: 100 		completion: 2		tullocinzia8@gmail.com
27th February 2020 04:13:08 PM 	 userid: 1036			grade: 100 		completion: 2		deborapau12@gmail.com
27th February 2020 04:13:08 PM 	 userid: 369			grade: 100 		completion: 2		pinaiurlo@gmail.com
27th February 2020 04:13:08 PM 	 userid: 76			grade: 100 		completion: 2		giovanna.damico@comprensivogalilei.gov.it
27th February 2020 04:13:08 PM 	 userid: 697			grade: 100 		completion: 2		stefania_pas@hotmail.com
27th February 2020 04:13:08 PM 	 userid: 2951			grade: 100 		completion: 2		antonietta.prontera@gmail.com
27th February 2020 04:13:08 PM 	 userid: 1087			grade: 100 		completion: 2		maria.zito72@gmail.com
27th February 2020 04:13:08 PM 	 userid: 101			grade: 100 		completion: 2		laura_forni@libero.it
27th February 2020 04:13:08 PM 	 userid: 3259			grade: 100 		completion: 2		ingegneredesantis@libero.it
27th February 2020 04:13:08 PM 	 userid: 4235			grade: 100 		completion: 2		michelebisaccia0@gmail.com
27th February 2020 04:13:08 PM 	 userid: 68			grade: 100 		completion: 2		consolata57@gmail.com
27th February 2020 04:13:08 PM 	 userid: 2920			grade: 100 		completion: 2		a.luzi13@campus.uniurb.it
27th February 2020 04:13:08 PM 	 userid: 2087			grade: 100 		completion: 2		florinda.picc@gmail.com
27th February 2020 04:13:08 PM 	 userid: 1022			grade: 100 		completion: 2		concitantonaci@gmail.com
27th February 2020 04:13:08 PM 	 userid: 4139			grade: 100 		completion: 2		robertagambellini@libero.it
27th February 2020 04:13:08 PM 	 userid: 194			grade: 100 		completion: 2		paola.lunardon78@gmail.com
27th February 2020 04:13:08 PM 	 userid: 113			grade: 100 		completion: 2		mariagloria.rosati@istruzione.it
27th February 2020 04:13:08 PM 	 userid: 3735			grade: 100 		completion: 2		francy.b87@hotmail.it
27th February 2020 04:13:08 PM 	 userid: 66			grade: 100 		completion: 2		patri.ando77@gmail.com
27th February 2020 04:13:08 PM 	 userid: 342			grade: 100 		completion: 2		mrosamaradei@alice.it
27th February 2020 04:13:08 PM 	 userid: 4437			grade: 100 		completion: 2		francescolanotte@tiscali.it
27th February 2020 04:13:08 PM 	 userid: 4465			grade: 100 		completion: 2		benedetta.oliverio@gmail.com
27th February 2020 04:13:08 PM 	 userid: 226			grade: 100 		completion: 2		grazia.ascolta@alice.it
27th February 2020 04:13:08 PM 	 userid: 619			grade: 100 		completion: 2		ing.acassarino@gmail.com
27th February 2020 04:13:08 PM 	 userid: 788			grade: 100 		completion: 2		grazia226@gmail.com
27th February 2020 04:13:08 PM 	 userid: 4539			grade: 100 		completion: 2		carmelina.rea1@istruzione.it
27th February 2020 04:13:08 PM 	 userid: 4242			grade: 100 		completion: 2		antonio.diluca2018@gmail.com
27th February 2020 04:13:08 PM 	 userid: 2716			grade: 100 		completion: 2		elisa.dainotto@virgilio.it
27th February 2020 04:13:08 PM 	 userid: 115			grade: 100 		completion: 2		brunoser27@gmail.com
27th February 2020 04:13:08 PM 	 userid: 726			grade: 100 		completion: 2		francesca.tosto@goiss.it
27th February 2020 04:13:08 PM 	 userid: 1314			grade: 100 		completion: 2		francesca.baldinipieri@gmail.com
27th February 2020 04:13:08 PM 	 userid: 4188			grade: 100 		completion: 2		teresa.venuso@gmail.com
27th February 2020 04:13:08 PM 	 userid: 4222			grade: 100 		completion: 2		dionigicristian.lentini@istruzione.it
27th February 2020 04:13:08 PM 	 userid: 3803			grade: 100 		completion: 2		ccavagnaro68@gmail.com
27th February 2020 04:13:08 PM 	 userid: 1938			grade: 100 		completion: 2		giuseppa.musso@libero.it
27th February 2020 04:13:08 PM 	 userid: 469			grade: 100 		completion: 2		maril8861@gmail.com
27th February 2020 04:13:08 PM 	 userid: 4897			grade: 100 		completion: 2		rossano.marano@istruzione.it
27th February 2020 04:13:08 PM 	 userid: 5162			grade: 100 		completion: 2		valeriarosman@inwind.it
27th February 2020 04:13:08 PM 	 userid: 3869			grade: 100 		completion: 2		fciarro@gmail.com
27th February 2020 04:13:08 PM 	 userid: 3964			grade: 100 		completion: 2		stefania.micalizzi20@gmail.com
27th February 2020 04:13:08 PM 	 userid: 90			grade: 100 		completion: 2		annanaciello@hotmail.it
27th February 2020 04:13:08 PM 	 userid: 643			grade: 100 		completion: 2		angelagiordano.ing@gmail.com
27th February 2020 04:13:08 PM 	 userid: 5631			grade: 100 		completion: 2		antone.paone@gmail.com
27th February 2020 04:13:08 PM 	 userid: 4693			grade: 100 		completion: 2		danielatitti82@hotmail.com
27th February 2020 04:13:08 PM 	 userid: 752			grade: 100 		completion: 2		maestraeva81@gmail.com
27th February 2020 04:13:08 PM 	 userid: 2006			grade: 100 		completion: 2		alessandro.brillante12@gmail.com
27th February 2020 04:13:08 PM 	 userid: 4665			grade: 100 		completion: 2		serena_rossetto@hotmail.com
27th February 2020 04:13:08 PM 	 userid: 4821			grade: 100 		completion: 2		anninapolitano71@gmail.com
27th February 2020 04:13:08 PM 	 userid: 514			grade: 100 		completion: 2		monicamorelli63@gmail.com
27th February 2020 04:13:08 PM 	 userid: 5465			grade: 100 		completion: 2		virginia.mariani@istruzione.it
27th February 2020 04:13:08 PM 	 userid: 5729			grade: 100 		completion: 2		enrica.eleuterio@istruzione.it
27th February 2020 04:13:08 PM 	 userid: 5034			grade: 100 		completion: 2		mary.beretta@gmail.com
27th February 2020 04:13:08 PM 	 userid: 4178			grade: 100 		completion: 2		giugioa72@gmail.com
27th February 2020 04:13:08 PM 	 userid: 4808			grade: 100 		completion: 2		fiorellaleone@hotmail.it
27th February 2020 04:13:08 PM 	 userid: 3573			grade: 100 		completion: 2		m.cadamuro@libero.it
27th February 2020 04:13:08 PM 	 userid: 6397			grade: 100 		completion: 2		teresa.vescio@istruzione.it
27th February 2020 04:13:08 PM 	 userid: 6067			grade: 100 		completion: 2		marinapriest@gmail.com
27th February 2020 04:13:08 PM 	 userid: 6521			grade: 100 		completion: 2		team25digit@gmail.com
27th February 2020 04:13:08 PM 	 userid: 5705			grade: 100 		completion: 2		olitramontano@gmail.com
27th February 2020 04:13:08 PM 	 userid: 5474			grade: 100 		completion: 2		alicechloe17@gmail.com
27th February 2020 04:13:08 PM 	 userid: 6058			grade: 100 		completion: 2		arianna.fattori@libero.it
27th February 2020 04:13:08 PM 	 userid: 5248			grade: 100 		completion: 2		rosalindatomasini67@gmail.com
27th February 2020 04:13:08 PM 	 userid: 5480			grade: 100 		completion: 2		alfredo.roberta21@gmail.com
27th February 2020 04:13:08 PM 	 userid: 5728			grade: 100 		completion: 2		annacarotenuto78@gmail.com
27th February 2020 04:13:08 PM 	 userid: 121			grade: 100 		completion: 2		trivieri.concetta@gmail.com
27th February 2020 04:13:08 PM 	 userid: 94			grade: 100 		completion: 2		elena_inguanti@libero.it
27th February 2020 04:13:08 PM 	 userid: 6165			grade: 100 		completion: 2		maria.sorvillo.rosaria@gmail.com
27th February 2020 04:13:08 PM 	 userid: 377			grade: 100 		completion: 2		domenica.rizzo1964@gmail.com
27th February 2020 04:13:08 PM 	 userid: 2381			grade: 100 		completion: 2		sandra.dibene@yahoo.it
27th February 2020 04:13:08 PM 	 userid: 4101			grade: 100 		completion: 2		ter.daniela@libero.it
27th February 2020 04:13:08 PM 	 userid: 4147			grade: 100 		completion: 2		federpasquini@libero.it
27th February 2020 04:13:08 PM 	 userid: 5807			grade: 100 		completion: 2		mariaaltomare.ruggiero@istruzione.it
27th February 2020 04:13:08 PM 	 userid: 727			grade: 100 		completion: 2		mariazzurra.cinci@gmail.com
27th February 2020 04:13:08 PM 	 userid: 3887			grade: 100 		completion: 2		marilena.urru@libero.it
27th February 2020 04:13:08 PM 	 userid: 3719			grade: 100 		completion: 2		maredicamillo@gmail.com
27th February 2020 04:13:08 PM 	 userid: 5699			grade: 100 		completion: 2		filodipaola66@gmail.com
27th February 2020 04:13:08 PM 	 userid: 7018			grade: 100 		completion: 2		marty.g3390@gmail.com
27th February 2020 04:13:08 PM 	 userid: 588			grade: 100 		completion: 2		dimarziogiuseppina@gmail.com
27th February 2020 04:13:08 PM 	 userid: 383			grade: 100 		completion: 2		francescas.sfragara@gmail.com
27th February 2020 04:13:08 PM 	 userid: 2143			grade: 100 		completion: 2		carmela.delpopolo27@gmail.com
27th February 2020 04:13:08 PM 	 userid: 7152			grade: 100 		completion: 2		nellap82@gmail.com
27th February 2020 04:13:08 PM 	 userid: 4910			grade: 100 		completion: 2		caterina.musmeci@scuolacoppola.it
27th February 2020 04:13:08 PM 	 userid: 5092			grade: 100 		completion: 2		annapozzi12@gmail.com
27th February 2020 04:13:08 PM 	 userid: 7092			grade: 100 		completion: 2		barbato.andrea83@gmail.com
27th February 2020 04:13:08 PM 	 userid: 7169			grade: 100 		completion: 2		alessandro.nava19@gmail.com
27th February 2020 04:13:08 PM 	 userid: 6917			grade: 100 		completion: 2		tammaro12patrizia@gmail.com
27th February 2020 04:13:08 PM 	 userid: 4691			grade: 100 		completion: 2		prof.morbelli@virgilio.it
27th February 2020 04:13:08 PM 	 userid: 2746			grade: 100 		completion: 2		g.ridulfo2@virgilio.it
27th February 2020 04:13:08 PM 	 userid: 4072			grade: 100 		completion: 2		maurofesta@yahoo.it
27th February 2020 04:13:08 PM 	 userid: 6302			grade: 100 		completion: 2		anastasia.defazio@istruzione.it
27th February 2020 04:13:08 PM 	 userid: 5614			grade: 100 		completion: 2		papacchini.monica@gmail.com
27th February 2020 04:13:08 PM 	 userid: 2347			grade: 100 		completion: 2		toninamura71@gmail.com
27th February 2020 04:13:08 PM 	 userid: 5897			grade: 100 		completion: 2		ilaria.biscardi1@istruzione.it
27th February 2020 04:13:08 PM 	 userid: 7261			grade: 100 		completion: 2		geisel80@inwind.it
27th February 2020 04:13:08 PM 	 userid: 7022			grade: 100 		completion: 2		pageremia@gmail.com
27th February 2020 04:13:08 PM 	 userid: 1462			grade: 100 		completion: 2		colomba.piesvi@istruzione.it
27th February 2020 04:13:08 PM 	 userid: 7297			grade: 100 		completion: 2		simona.marighella1@istruzione.it
27th February 2020 04:13:08 PM 	 userid: 837			grade: 100 		completion: 2		ire1087allegra@gmail.com
27th February 2020 04:13:08 PM 	 userid: 6110			grade: 100 		completion: 2		deufemia@icreggiolo.istruzioneer.it
27th February 2020 04:13:08 PM 	 userid: 183			grade: 100 		completion: 2		olivaros@libero.it
27th February 2020 04:13:08 PM 	 userid: 1600			grade: 100 		completion: 2		ale66andra@gmail.com
27th February 2020 04:13:08 PM 	 userid: 1741			grade: 100 		completion: 2		annamaria.messina33@gmail.com
27th February 2020 04:13:08 PM 	 userid: 141			grade: 100 		completion: 2		zugenny@gmail.com
27th February 2020 04:13:08 PM 	 userid: 7112			grade: 100 		completion: 2		salvatorecu@gmail.com
27th February 2020 04:13:08 PM 	 userid: 7460			grade: 100 		completion: 2		anna.rio106@gmail.com
27th February 2020 04:13:08 PM 	 userid: 1093			grade: 100 		completion: 2		spadavecchiaangela@libero.it
27th February 2020 04:13:08 PM 	 userid: 7206			grade: 100 		completion: 2		vavale70@gmail.com
27th February 2020 04:13:08 PM 	 userid: 4425			grade: 100 		completion: 2		giovannavernasca@hotmail.it
27th February 2020 04:13:08 PM 	 userid: 7396			grade: 100 		completion: 2		luisella.maggini@istruzione.it
27th February 2020 04:13:08 PM 	 userid: 5387			grade: 100 		completion: 2		riggiluigia@libero.it
27th February 2020 04:13:08 PM 	 userid: 7180			grade: 100 		completion: 2		stefania_ventura@yahoo.it
27th February 2020 04:13:08 PM 	 userid: 7196			grade: 100 		completion: 2		dariapaola.loreti@istruzione.it
27th February 2020 04:13:08 PM 	 userid: 7430			grade: 100 		completion: 2		di_maso@libero.it
27th February 2020 04:13:08 PM 	 userid: 6480			grade: 100 		completion: 2		pablarouge@gmail.com
27th February 2020 04:13:08 PM 	 userid: 1127			grade: 100 		completion: 2		falconemattia2007@libero.it
27th February 2020 04:13:08 PM 	 userid: 6822			grade: 100 		completion: 2		debex10@libero.it
27th February 2020 04:13:08 PM 	 userid: 5665			grade: 100 		completion: 2		domenica.celeste@istruzione.it
27th February 2020 04:13:08 PM 	 userid: 3777			grade: 100 		completion: 2		dscarici@gmail.com
27th February 2020 04:13:08 PM 	 userid: 7543			grade: 100 		completion: 2		barbarasabrirobi@yahoo.it
27th February 2020 04:13:08 PM 	 userid: 453			grade: 100 		completion: 2		ciskybarb@gmail.com
27th February 2020 04:13:08 PM 	 userid: 721			grade: 100 		completion: 2		antonellagirolamo69@gmail.com
27th February 2020 04:13:08 PM 	 userid: 60			grade: 100 		completion: 2		abc1399@yahoo.it
27th February 2020 04:13:08 PM 	 userid: 7144			grade: 100 		completion: 2		sguariocinzia@gmail.com
27th February 2020 04:13:08 PM 	 userid: 4513			grade: 100 		completion: 2		fbraincoat@gmail.com
27th February 2020 04:13:08 PM 	 userid: 2459			grade: 100 		completion: 2		menabuonauro@hotmail.it
27th February 2020 04:13:08 PM 	 userid: 3509			grade: 100 		completion: 2		loredanatrevisan68@gmail.com
27th February 2020 04:13:08 PM 	 userid: 5842			grade: 100 		completion: 2		adamaccioni@gmail.com
27th February 2020 04:13:08 PM 	 userid: 773			grade: 100 		completion: 2		maraguanella@icbertacchi.gov.it
27th February 2020 04:13:08 PM 	 userid: 579			grade: 100 		completion: 2		st.frittoli@gmail.com
27th February 2020 04:13:08 PM 	 userid: 5980			grade: 100 		completion: 2		simguti@yahoo.it
27th February 2020 04:13:08 PM 	 userid: 5468			grade: 100 		completion: 2		vivianachiovaro@hotmail.com
27th February 2020 04:13:08 PM 	 userid: 7117			grade: 100 		completion: 2		faeannalisa@gmail.com
27th February 2020 04:13:08 PM 	 userid: 6066			grade: 100 		completion: 2		mluis2460@gmail.com
27th February 2020 04:13:08 PM 	 userid: 5795			grade: 100 		completion: 2		ritascappa@gmail.com
27th February 2020 04:13:08 PM 	 userid: 7725			grade: 100 		completion: 2		franca.cesareni@gmail.com
27th February 2020 04:13:08 PM 	 userid: 5960			grade: 100 		completion: 2		angela.benfante@istruzione.it
27th February 2020 04:13:08 PM 	 userid: 5267			grade: 100 		completion: 2		ar.francese@gmail.com
27th February 2020 04:13:08 PM 	 userid: 5425			grade: 100 		completion: 2		silvia.coletta1@libero.it
27th February 2020 04:13:08 PM 	 userid: 4550			grade: 100 		completion: 2		ida.martucciello@gmail.com
27th February 2020 04:13:08 PM 	 userid: 7746			grade: 100 		completion: 2		delper6@gmail.com
27th February 2020 04:13:08 PM 	 userid: 6516			grade: 100 		completion: 2		miriana.95@libero.it
27th February 2020 04:13:08 PM 	 userid: 7777			grade: 100 		completion: 2		m.scarcipino@hotmail.it
27th February 2020 04:13:08 PM 	 userid: 7247			grade: 100 		completion: 2		gennarocoviello68@gmail.com
27th February 2020 04:13:08 PM 	 userid: 7836			grade: 100 		completion: 2		antonioromano1968@libero.it
27th February 2020 04:13:08 PM 	 userid: 7245			grade: 100 		completion: 2		vincenzina.schiavone@istruzione.it
27th February 2020 04:13:08 PM 	 userid: 6928			grade: 100 		completion: 2		brigugliomariaflavia@yahoo.it
27th February 2020 04:13:08 PM 	 userid: 7636			grade: 100 		completion: 2		pietro.80@alice.it
27th February 2020 04:13:08 PM 	 userid: 6111			grade: 100 		completion: 2		irago@tiscali.it
27th February 2020 04:13:08 PM 	 userid: 7781			grade: 100 		completion: 2		marino.gianni@gmail.com
27th February 2020 04:13:08 PM 	 userid: 3098			grade: 100 		completion: 2		grazia.dicarluccio76@gmail.com
27th February 2020 04:13:08 PM 	 userid: 3688			grade: 100 		completion: 2		patriviareggio@gmail.com
27th February 2020 04:13:08 PM 	 userid: 4595			grade: 100 		completion: 2		beatricegrottini@gmail.com
27th February 2020 04:13:08 PM 	 userid: 3800			grade: 100 		completion: 2		tartacinzia@libero.it
27th February 2020 04:13:08 PM 	 userid: 5087			grade: 100 		completion: 2		palmisanomvseregno@gmail.com
27th February 2020 04:13:08 PM 	 userid: 7843			grade: 100 		completion: 2		gianluca.testoni91@gmail.com
27th February 2020 04:13:08 PM 	 userid: 3927			grade: 100 		completion: 2		beatrice.saveri@icpaoloneglia.it
27th February 2020 04:13:08 PM 	 userid: 5241			grade: 100 		completion: 2		mariaassunta.cieri@istruzione.it
27th February 2020 04:13:08 PM 	 userid: 280			grade: 100 		completion: 2		tribbianilorena@virgilio.it
27th February 2020 04:13:08 PM 	 userid: 7648			grade: 100 		completion: 2		marcuccimarina@alice.it
27th February 2020 04:13:08 PM 	 userid: 7804			grade: 100 		completion: 2		alevidali65@gmail.com
27th February 2020 04:13:08 PM 	 userid: 4802			grade: 100 		completion: 2		simomariaalessandra@hotmail.it
27th February 2020 04:13:08 PM 	 userid: 8129			grade: 100 		completion: 2		roberta.ianni@tin.it
27th February 2020 04:13:08 PM 	 userid: 7976			grade: 100 		completion: 2		stefano.poiana@didasca.org
27th February 2020 04:13:08 PM 	 userid: 1300			grade: 100 		completion: 2		luciascanzano@libero.it
27th February 2020 04:13:08 PM 	 userid: 262			grade: 100 		completion: 2		paola.raponi@gmail.com
27th February 2020 04:13:08 PM 	 userid: 7576			grade: 100 		completion: 2		g.caponi@campus.uniurb.it
27th February 2020 04:13:08 PM 	 userid: 999			grade: 100 		completion: 2		augusta63@libero.it
27th February 2020 04:13:08 PM 	 userid: 7089			grade: 100 		completion: 2		adrianaangela.grieco@istruzione.it
27th February 2020 04:13:08 PM 	 userid: 7790			grade: 100 		completion: 2		paola.goretti@libero.it
27th February 2020 04:13:08 PM 	 userid: 5645			grade: 100 		completion: 2		manta.assunta62@gmail.com
27th February 2020 04:13:08 PM 	 userid: 6106			grade: 100 		completion: 2		salvatore.demarzo@gmail.com
27th February 2020 04:13:08 PM 	 userid: 364			grade: 100 		completion: 2		simonamuriana@gmail.com
27th February 2020 04:13:08 PM 	 userid: 7101			grade: 100 		completion: 2		rosil78@libero.it
27th February 2020 04:13:08 PM 	 userid: 7621			grade: 100 		completion: 2		santagata.carmen@gmail.com
27th February 2020 04:13:08 PM 	 userid: 2637			grade: 100 		completion: 2		bernardalanza@icloud.com
27th February 2020 04:13:08 PM 	 userid: 1164			grade: 100 		completion: 2		laura_reale@libero.it
27th February 2020 04:13:08 PM 	 userid: 8043			grade: 100 		completion: 2		lalonza18@hotmail.com
27th February 2020 04:13:08 PM 	 userid: 1777			grade: 100 		completion: 2		alessandra.petitta@libero.it
27th February 2020 04:13:08 PM 	 userid: 7079			grade: 100 		completion: 2		gris2003@libero.it
27th February 2020 04:13:08 PM 	 userid: 8183			grade: 100 		completion: 2		filo1082@hotmail.it
27th February 2020 04:13:08 PM 	 userid: 8171			grade: 100 		completion: 2		francescabisogni@libero.it
27th February 2020 04:13:08 PM 	 userid: 7105			grade: 100 		completion: 2		r.capasso85@gmail.com
27th February 2020 04:13:08 PM 	 userid: 2890			grade: 100 		completion: 2		valeriagiudice1982@libero.it
27th February 2020 04:13:08 PM 	 userid: 5682			grade: 100 		completion: 2		brezzaditerra@hotmail.it
27th February 2020 04:13:08 PM 	 userid: 5265			grade: 100 		completion: 2		silvia_269@libero.it
27th February 2020 04:13:08 PM 	 userid: 6718			grade: 100 		completion: 2		gattolidiana64@gmail.com
27th February 2020 04:13:08 PM 	 userid: 7308			grade: 100 		completion: 2		marco.leone.an@email.it
27th February 2020 04:13:08 PM 	 userid: 8035			grade: 100 		completion: 2		luciannadepu@gmail.com
27th February 2020 04:13:08 PM 	 userid: 2820			grade: 100 		completion: 2		stefania.muriana@gmail.com
27th February 2020 04:13:08 PM 	 userid: 107			grade: 100 		completion: 2		marzia.trumino@gmail.com
27th February 2020 04:13:08 PM 	 userid: 8224			grade: 100 		completion: 2		cpscuola15@gmail.com
27th February 2020 04:13:08 PM 	 userid: 7927			grade: 100 		completion: 2		simone.shimon@gmail.com
27th February 2020 04:13:08 PM 	 userid: 7286			grade: 100 		completion: 2		canella.milena@libero.it
27th February 2020 04:13:08 PM 	 userid: 293			grade: 100 		completion: 2		mariaangelazaghi@gmail.com
27th February 2020 04:13:08 PM 	 userid: 7982			grade: 100 		completion: 2		chiara.poletti1977@gmail.com
27th February 2020 04:13:08 PM 	 userid: 7513			grade: 100 		completion: 2		catia.celotto.cc@gmail.com
27th February 2020 04:13:08 PM 	 userid: 3361			grade: 100 		completion: 2		maryinca14@gmail.com
27th February 2020 04:13:08 PM 	 userid: 535			grade: 100 		completion: 2		giovanna.rizzo79@gmail.com
27th February 2020 04:13:08 PM 	 userid: 8364			grade: 100 		completion: 2		immaponticelli@gmail.com
27th February 2020 04:13:08 PM 	 userid: 591			grade: 100 		completion: 2		mariaceleste2008@hotmail.it
27th February 2020 04:13:08 PM 	 userid: 572			grade: 100 		completion: 2		mariapagliara10@gmail.com
27th February 2020 04:13:08 PM 	 userid: 8411			grade: 100 		completion: 2		giuseclini@gmail.com
27th February 2020 04:13:08 PM 	 userid: 2064			grade: 100 		completion: 2		gaia180673@gmail.com
27th February 2020 04:13:08 PM 	 userid: 8464			grade: 100 		completion: 2		e.grassi9@campus.uniurb.it
27th February 2020 04:13:08 PM 	 userid: 8395			grade: 100 		completion: 2		sacchitellisabry@gmail.com
27th February 2020 04:13:08 PM 	 userid: 8245			grade: 100 		completion: 2		cabrini.r@libero.it
27th February 2020 04:13:08 PM 	 userid: 8299			grade: 100 		completion: 2		baldassarrelcu@gmail.com
27th February 2020 04:13:08 PM 	 userid: 8369			grade: 100 		completion: 2		luciafratangelo@hotmail.it
27th February 2020 04:13:08 PM 	 userid: 405			grade: 100 		completion: 2		c.quartu@alice.it
27th February 2020 04:13:08 PM 	 userid: 8338			grade: 100 		completion: 2		giuseppacascino@primocomprensivoacireale.gov.it
27th February 2020 04:13:08 PM 	 userid: 5521			grade: 100 		completion: 2		rosellaannabonadio@gmail.com
27th February 2020 04:13:08 PM 	 userid: 8519			grade: 100 		completion: 2		a.spadoni9@campus.uniurb.it
27th February 2020 04:13:08 PM 	 userid: 7490			grade: 100 		completion: 2		viterale.am@live.it
27th February 2020 04:13:08 PM 	 userid: 7936			grade: 100 		completion: 2		am.acerra62@gmail.com
27th February 2020 04:13:08 PM 	 userid: 8311			grade: 100 		completion: 2		fotigraziella@primocomprensivoacireale.gov.it
27th February 2020 04:13:08 PM 	 userid: 8300			grade: 100 		completion: 2		tinaanghelone@primocomprensivoacireale.gov.it
27th February 2020 04:13:08 PM 	 userid: 8566			grade: 100 		completion: 2		luisalotito@gmail.com
27th February 2020 04:13:08 PM 	 userid: 8344			grade: 100 		completion: 2		ritasciacca@primocomprensivoacireale.gov.it
27th February 2020 04:13:08 PM 	 userid: 8289			grade: 100 		completion: 2		giovannasantangelo@primocomprensivoacireale.gov.it
27th February 2020 04:13:08 PM 	 userid: 6857			grade: 100 		completion: 2		annamariatotaro58@gmail.com
27th February 2020 04:13:08 PM 	 userid: 8592			grade: 100 		completion: 2		pichierrinatalia@gmail.com
27th February 2020 04:13:08 PM 	 userid: 3940			grade: 100 		completion: 2		insnunzianicolosi@gmail.com
27th February 2020 04:13:08 PM 	 userid: 8298			grade: 100 		completion: 2		mariateresaalfiacaltabiano@primocomprensivoacireale.gov.it
27th February 2020 04:13:08 PM 	 userid: 7848			grade: 100 		completion: 2		antonella.pavan@alice.it
27th February 2020 04:13:08 PM 	 userid: 10754			grade: 100 		completion: 2		francabiondi55@gmail.com
27th February 2020 04:13:08 PM 	 userid: 8327			grade: 100 		completion: 2		carmelagrasso@primocomprensivoacireale.gov.it
27th February 2020 04:13:08 PM 	 userid: 10384			grade: 100 		completion: 2		susicandice1961@libero.it
27th February 2020 04:13:08 PM 	 userid: 10941			grade: 100 		completion: 2		v.michelini2@campus.uniurb.it
27th February 2020 04:13:08 PM 	 userid: 8627			grade: 100 		completion: 2		fiorenza.baudissone@libero.it
27th February 2020 04:13:08 PM 	 userid: 8358			grade: 100 		completion: 2		mariatwiko@primocomprensivoacireale.gov.it
27th February 2020 04:13:08 PM 	 userid: 1696			grade: 100 		completion: 2		lfazzini.lf@gmail.com
27th February 2020 04:13:08 PM 	 userid: 8647			grade: 100 		completion: 2		silvia.giuliani85@gmail.com
27th February 2020 04:13:08 PM 	 userid: 8436			grade: 100 		completion: 2		f.garagozzo@gmail.com
27th February 2020 04:13:08 PM 	 userid: 8654			grade: 100 		completion: 2		teresa.abbracciavento@gmail.com
27th February 2020 04:13:08 PM 	 userid: 7267			grade: 100 		completion: 2		luciana.palmitessa@gmail.com
27th February 2020 04:13:08 PM 	 userid: 4613			grade: 100 		completion: 2		rosa.candita@googlemail.com
27th February 2020 04:13:08 PM 	 userid: 8420			grade: 100 		completion: 2		adaleo73@icloud.com
27th February 2020 04:13:08 PM 	 userid: 8673			grade: 100 		completion: 2		sa.nik1555@gmail.com
27th February 2020 04:13:08 PM 	 userid: 8677			grade: 100 		completion: 2		tiziana.azzarito@libero.it
27th February 2020 04:13:08 PM 	 userid: 8655			grade: 100 		completion: 2		ivanaagata.genovese@gmail.com
27th February 2020 04:13:08 PM 	 userid: 8676			grade: 100 		completion: 2		mischitelliannamaria@libero.it
27th February 2020 04:13:08 PM 	 userid: 4263			grade: 100 		completion: 2		serenellabartelli@gmail.com
27th February 2020 04:13:08 PM 	 userid: 7001			grade: 100 		completion: 2		emanuelafacchetti@hotmail.it
27th February 2020 04:13:08 PM 	 userid: 4968			grade: 100 		completion: 2		stefaniadibrigida@alice.it
27th February 2020 04:13:08 PM 	 userid: 10334			grade: 100 		completion: 2		concita64.cs@gmail.com
27th February 2020 04:13:08 PM 	 userid: 8888			grade: 100 		completion: 2		a.serafini21@campus.uniurb.it
27th February 2020 04:13:08 PM 	 userid: 8671			grade: 100 		completion: 2		alessandrolana70@gmail.com
27th February 2020 04:13:08 PM 	 userid: 8766			grade: 100 		completion: 2		l.genghini@campus.uniurb.it
27th February 2020 04:13:08 PM 	 userid: 1752			grade: 100 		completion: 2		andriulo.anna@gmail.com
27th February 2020 04:13:08 PM 	 userid: 2396			grade: 100 		completion: 2		marvit79@hotmail.com
27th February 2020 04:13:08 PM 	 userid: 7758			grade: 100 		completion: 2		mottafrancesca175@gmail.com
27th February 2020 04:13:08 PM 	 userid: 2964			grade: 100 		completion: 2		michelasavino@hotmail.com
27th February 2020 04:13:08 PM 	 userid: 6262			grade: 100 		completion: 2		cesaranofiorenza@gmail.com
27th February 2020 04:13:08 PM 	 userid: 4317			grade: 100 		completion: 2		ariannatarsetti@libero.it
27th February 2020 04:13:08 PM 	 userid: 8850			grade: 100 		completion: 2		tiziano.marangi@gmail.com
27th February 2020 04:13:08 PM 	 userid: 8819			grade: 100 		completion: 2		m.marcheggiani@campus.uniurb.it
27th February 2020 04:13:08 PM 	 userid: 6000			grade: 100 		completion: 2		majello03@scuolapirandellocomiso.it
27th February 2020 04:13:08 PM 	 userid: 8767			grade: 100 		completion: 2		dalcolle.alessandra@gmail.com
27th February 2020 04:13:08 PM 	 userid: 6964			grade: 100 		completion: 2		brolo@bresciaonline.it
27th February 2020 04:13:08 PM 	 userid: 8466			grade: 100 		completion: 2		giuseppina.soriente@istruzione.it
27th February 2020 04:13:08 PM 	 userid: 8846			grade: 100 		completion: 2		mantovani_silvia_c@yahoo.it
27th February 2020 04:13:08 PM 	 userid: 8522			grade: 100 		completion: 2		deriabevilacqua@virgilio.it
27th February 2020 04:13:08 PM 	 userid: 2300			grade: 100 		completion: 2		antodrago156@gmail.com
27th February 2020 04:13:08 PM 	 userid: 8879			grade: 100 		completion: 2		p.paolini3@campus.uniurb.it
27th February 2020 04:13:08 PM 	 userid: 3030			grade: 100 		completion: 2		letiziaguarino@libero.it
27th February 2020 04:13:08 PM 	 userid: 2101			grade: 100 		completion: 2		paolalaura2013@gmail.com
27th February 2020 04:13:08 PM 	 userid: 8663			grade: 100 		completion: 2		anperrella@libero.it
27th February 2020 04:13:08 PM 	 userid: 8555			grade: 100 		completion: 2		rosastrano@primocomprensivoacireale.gov.it
27th February 2020 04:13:08 PM 	 userid: 8323			grade: 100 		completion: 2		stefyza@tiscali.it
27th February 2020 04:13:08 PM 	 userid: 4445			grade: 100 		completion: 2		adesantis662@gmail.com
27th February 2020 04:13:08 PM 	 userid: 881			grade: 100 		completion: 2		maestraraffaela@gmail.com
27th February 2020 04:13:08 PM 	 userid: 8887			grade: 100 		completion: 2		laurafreina@gmail.com
27th February 2020 04:13:08 PM 	 userid: 8870			grade: 100 		completion: 2		paola_salmoiraghi@yahoo.it
27th February 2020 04:13:08 PM 	 userid: 3027			grade: 100 		completion: 2		mariac.genovesi@gmail.com
27th February 2020 04:13:08 PM 	 userid: 8951			grade: 100 		completion: 2		savalele11@gmail.com
27th February 2020 04:13:08 PM 	 userid: 8475			grade: 100 		completion: 2		concettasiano1@gmail.com
27th February 2020 04:13:08 PM 	 userid: 7415			grade: 100 		completion: 2		giulio.alluto@gmail.com
27th February 2020 04:13:08 PM 	 userid: 8303			grade: 100 		completion: 2		graziellacaruso@primocomprensivoacireale.gov.it
27th February 2020 04:13:08 PM 	 userid: 8340			grade: 100 		completion: 2		rosyspina@primocomprensivoacireale.gov.it
27th February 2020 04:13:08 PM 	 userid: 9018			grade: 100 		completion: 2		nadia.masci@fastwebnet.it
27th February 2020 04:13:08 PM 	 userid: 8404			grade: 100 		completion: 2		carmentrovato28@gmail.com
27th February 2020 04:13:08 PM 	 userid: 8968			grade: 100 		completion: 2		mgmalachite3@gmail.com
27th February 2020 04:13:08 PM 	 userid: 8509			grade: 100 		completion: 2		acquafreddadaniela2@gmail.com
27th February 2020 04:13:08 PM 	 userid: 8291			grade: 100 		completion: 2		millypettinato@primocomprensivoacireale.gov.it
27th February 2020 04:13:08 PM 	 userid: 8424			grade: 100 		completion: 2		annagiuffrida@primocomprensivoacireale.gov.it
27th February 2020 04:13:08 PM 	 userid: 8754			grade: 100 		completion: 2		guidomaifrini@libero.it
27th February 2020 04:13:08 PM 	 userid: 8293			grade: 100 		completion: 2		stranoalessandro@primocomprensivoacireale.gov.it
27th February 2020 04:13:08 PM 	 userid: 8746			grade: 100 		completion: 2		vcarosso@gmail.com
27th February 2020 04:13:08 PM 	 userid: 8382			grade: 100 		completion: 2		rosaria_danna@primocomprensivoacireale.gov.it
27th February 2020 04:13:08 PM 	 userid: 9220			grade: 100 		completion: 2		marabarbiero75@gmail.com
27th February 2020 04:13:08 PM 	 userid: 1450			grade: 100 		completion: 2		adryanto91@hotmail.it
27th February 2020 04:13:08 PM 	 userid: 8958			grade: 100 		completion: 2		agnese.dimeglio@istruzione.it
27th February 2020 04:13:08 PM 	 userid: 9050			grade: 100 		completion: 2		bambina.rossi@istruzione.it
27th February 2020 04:13:08 PM 	 userid: 9044			grade: 100 		completion: 2		e.massi4@campus.uniurb.it
27th February 2020 04:13:08 PM 	 userid: 9054			grade: 100 		completion: 2		suemi@libero.it
27th February 2020 04:13:08 PM 	 userid: 8942			grade: 100 		completion: 2		terrymas65@gmail.com
27th February 2020 04:13:08 PM 	 userid: 8456			grade: 100 		completion: 2		elenasimonetti@live.it
27th February 2020 04:13:08 PM 	 userid: 9063			grade: 100 		completion: 2		ilariavitti@virgilio.it
27th February 2020 04:13:08 PM 	 userid: 8631			grade: 100 		completion: 2		ele10790@yahoo.it
27th February 2020 04:13:08 PM 	 userid: 4025			grade: 100 		completion: 2		donata62esposito@gmail.com
27th February 2020 04:13:08 PM 	 userid: 4442			grade: 100 		completion: 2		luisa.pacifici@libero.it
27th February 2020 04:13:08 PM 	 userid: 8987			grade: 100 		completion: 2		competenzedigitalidibase@gmail.com
27th February 2020 04:13:08 PM 	 userid: 8817			grade: 100 		completion: 2		imma.scarpiello@alice.it
27th February 2020 04:13:08 PM 	 userid: 6048			grade: 100 		completion: 2		alfonsina.siano@istruzione.it
27th February 2020 04:13:08 PM 	 userid: 930			grade: 100 		completion: 2		babepippy@hotmail.com
27th February 2020 04:13:08 PM 	 userid: 9158			grade: 100 		completion: 2		tomasellaelisa@gmail.com
27th February 2020 04:13:08 PM 	 userid: 9109			grade: 100 		completion: 2		rossana.olivieri@libero.it
27th February 2020 04:13:08 PM 	 userid: 8119			grade: 100 		completion: 2		liollianna69@gmail.com
27th February 2020 04:13:08 PM 	 userid: 9116			grade: 100 		completion: 2		giuse.muna1@gmail.com
27th February 2020 04:13:08 PM 	 userid: 9189			grade: 100 		completion: 2		sissi.capo@libero.it
27th February 2020 04:13:08 PM 	 userid: 9118			grade: 100 		completion: 2		noemi.sorbi.se5824@gmail.com
27th February 2020 04:13:08 PM 	 userid: 9157			grade: 100 		completion: 2		moon.ray@hotmail.it
27th February 2020 04:13:08 PM 	 userid: 9170			grade: 100 		completion: 2		marlen.nino@hotmail.it
27th February 2020 04:13:08 PM 	 userid: 9136			grade: 100 		completion: 2		dbellomonte@libero.it
27th February 2020 04:13:08 PM 	 userid: 9212			grade: 100 		completion: 2		super.piacentini@libero.it
27th February 2020 04:13:08 PM 	 userid: 8956			grade: 100 		completion: 2		marilena.tondo@istruzione.it
27th February 2020 04:13:08 PM 	 userid: 7592			grade: 100 		completion: 2		a.deluna1@campus.uniurb.it
27th February 2020 04:13:08 PM 	 userid: 9208			grade: 100 		completion: 2		gianluca.barile@gmail.com
27th February 2020 04:13:08 PM 	 userid: 8801			grade: 100 		completion: 2		stefaniagardella74@gmail.com
27th February 2020 04:13:08 PM 	 userid: 9086			grade: 100 		completion: 2		elisa.verzini@gmail.com
27th February 2020 04:13:08 PM 	 userid: 9332			grade: 100 		completion: 2		nico.bonomi23@gmail.com
27th February 2020 04:13:08 PM 	 userid: 8815			grade: 100 		completion: 2		v.russo15@campus.uniurb.it
27th February 2020 04:13:08 PM 	 userid: 8763			grade: 100 		completion: 2		laura_pepi@hotmail.it
27th February 2020 04:13:08 PM 	 userid: 8908			grade: 100 		completion: 2		maria.sassano5@gmail.com
27th February 2020 04:13:08 PM 	 userid: 9258			grade: 100 		completion: 2		sonia.ausiliaria@gmail.com
27th February 2020 04:13:08 PM 	 userid: 9177			grade: 100 		completion: 2		capobiancocarolina@gmail.com
27th February 2020 04:13:08 PM 	 userid: 8878			grade: 100 		completion: 2		maria.masala80@gmail.com
27th February 2020 04:13:08 PM 	 userid: 9397			grade: 100 		completion: 2		desip@hotmail.it
27th February 2020 04:13:08 PM 	 userid: 9446			grade: 100 		completion: 2		salvatoreleanza90@gmail.com
27th February 2020 04:13:08 PM 	 userid: 5936			grade: 100 		completion: 2		letizia.fissi@gmail.com
27th February 2020 04:13:08 PM 	 userid: 9444			grade: 100 		completion: 2		giusj.rella@libero.it
27th February 2020 04:13:08 PM 	 userid: 9166			grade: 100 		completion: 2		roberta.pagano67@gmail.com
27th February 2020 04:13:08 PM 	 userid: 4257			grade: 100 		completion: 2		angiecolasuonno@gmail.com
27th February 2020 04:13:08 PM 	 userid: 9492			grade: 100 		completion: 2		andrea@gio23.it
27th February 2020 04:13:08 PM 	 userid: 8468			grade: 100 		completion: 2		monica.rivato@istruzione.it
27th February 2020 04:13:08 PM 	 userid: 9246			grade: 100 		completion: 2		beppe123@live.it
27th February 2020 04:13:08 PM 	 userid: 9449			grade: 100 		completion: 2		erreesse@hotmail.com
27th February 2020 04:13:08 PM 	 userid: 9253			grade: 100 		completion: 2		gloria.migliore@gmail.com
27th February 2020 04:13:08 PM 	 userid: 10736			grade: 100 		completion: 2		maria.1degiorgi@gmail.com
27th February 2020 04:13:08 PM 	 userid: 6849			grade: 100 		completion: 2		mpinc82@gmail.com
27th February 2020 04:13:08 PM 	 userid: 1140			grade: 100 		completion: 2		eleo.russi@alice.it
27th February 2020 04:13:08 PM 	 userid: 4157			grade: 100 		completion: 2		elianaminacapelli@gmail.com
27th February 2020 04:13:08 PM 	 userid: 7175			grade: 100 		completion: 2		caterinalauriero78@gmail.com
27th February 2020 04:13:08 PM 	 userid: 9445			grade: 100 		completion: 2		sengerry@libero.it
27th February 2020 04:13:08 PM 	 userid: 10220			grade: 100 		completion: 2		claeri92@gmail.com
27th February 2020 04:13:08 PM 	 userid: 9459			grade: 100 		completion: 2		agnese.vescovi2201@gmail.com
27th February 2020 04:13:08 PM 	 userid: 6134			grade: 100 		completion: 2		paola.panzani@gmail.com
27th February 2020 04:13:08 PM 	 userid: 9128			grade: 100 		completion: 2		e.pontellini@campus.uniurb.it
27th February 2020 04:13:08 PM 	 userid: 9524			grade: 100 		completion: 2		s.cossi2@campus.uniurb.it
27th February 2020 04:13:08 PM 	 userid: 9458			grade: 100 		completion: 2		valeria.lobello@istruzione.it
27th February 2020 04:13:08 PM 	 userid: 4421			grade: 100 		completion: 2		russo.tina85@gmail.com
27th February 2020 04:13:08 PM 	 userid: 10062			grade: 100 		completion: 2		mariateresa.rizzo77@libero.it
27th February 2020 04:13:08 PM 	 userid: 9442			grade: 100 		completion: 2		mcristinapasetti@alice.it
27th February 2020 04:13:08 PM 	 userid: 8834			grade: 100 		completion: 2		andreaingenito078@gmail.com
27th February 2020 04:13:08 PM 	 userid: 10598			grade: 100 		completion: 2		e.gamurrini@campus.uniurb.it
27th February 2020 04:13:08 PM 	 userid: 3811			grade: 100 		completion: 2		formage.ld@gmail.com
27th February 2020 04:13:08 PM 	 userid: 9478			grade: 100 		completion: 2		a.mauri3@campus.uniurb.it
27th February 2020 04:13:08 PM 	 userid: 10773			grade: 100 		completion: 2		s.crisan@campus.uniurb.it
27th February 2020 04:13:08 PM 	 userid: 10476			grade: 100 		completion: 2		alessandromazzini1000@gmail.com
27th February 2020 04:13:08 PM 	 userid: 9247			grade: 100 		completion: 2		pulcinomiriam@gmail.com
27th February 2020 04:13:08 PM 	 userid: 9238			grade: 100 		completion: 2		n.santini3@campus.uniurb.it
27th February 2020 04:13:08 PM 	 userid: 10673			grade: 100 		completion: 2		carmen.lettieri70@gmail.com
27th February 2020 04:13:08 PM 	 userid: 9394			grade: 100 		completion: 2		noemi.ignoffo@libero.it
27th February 2020 04:13:08 PM 	 userid: 10841			grade: 100 		completion: 2		stellaromano@alice.it
27th February 2020 04:13:08 PM 	 userid: 8423			grade: 100 		completion: 2		faggianorenata@gmail.com
27th February 2020 04:13:08 PM 	 userid: 9375			grade: 100 		completion: 2		pucirosa@alice.it
27th February 2020 04:13:08 PM 	 userid: 3714			grade: 100 		completion: 2		simantinucci@gmail.com
27th February 2020 04:13:08 PM 	 userid: 9248			grade: 100 		completion: 2		f.giambartolomei@campus.uniurb.it
27th February 2020 04:13:08 PM 	 userid: 9214			grade: 100 		completion: 2		n.santeramo@campus.uniurb.it
27th February 2020 04:13:08 PM 	 userid: 5604			grade: 100 		completion: 2		paespo64@gmail.com
27th February 2020 04:13:08 PM 	 userid: 10740			grade: 100 		completion: 2		simblu@gmail.com
27th February 2020 04:13:08 PM 	 userid: 10766			grade: 100 		completion: 2		gvnncampanile@gmail.com
27th February 2020 04:13:08 PM 	 userid: 9542			grade: 100 		completion: 2		mariaconcetta.ammirati@gmail.com
27th February 2020 04:13:08 PM 	 userid: 1374			grade: 100 		completion: 2		ele.vero65@gmail.com
27th February 2020 04:13:08 PM 	 userid: 11057			grade: 100 		completion: 2		tecnoinrete@gmail.com
27th February 2020 04:13:08 PM 	 userid: 7969			grade: 100 		completion: 2		alessandraviola@virgilio.it
27th February 2020 04:13:08 PM 	 userid: 9105			grade: 100 		completion: 2		l.grasso3@campus.uniurb.it
27th February 2020 04:13:08 PM 	 userid: 10722			grade: 100 		completion: 2		meloniteresa72@gmail.com
27th February 2020 04:13:08 PM 	 userid: 468			grade: 100 		completion: 2		chiara.bravi@libero.it
27th February 2020 04:13:08 PM 	 userid: 9224			grade: 100 		completion: 2		fiorentino.mariaausilia@gmail.com
27th February 2020 04:13:08 PM 	 userid: 10486			grade: 100 		completion: 2		c.barzotti2@campus.uniurb.it
27th February 2020 04:13:08 PM 	 userid: 9852			grade: 100 		completion: 2		mavy61@hotmail.it
27th February 2020 04:13:08 PM 	 userid: 8988			grade: 100 		completion: 2		frarosa75@gmail.com
27th February 2020 04:13:08 PM 	 userid: 10749			grade: 100 		completion: 2		riemmacarolina@virgilio.it
27th February 2020 04:13:08 PM 	 userid: 10550			grade: 100 		completion: 2		k.berberolli@campus.uniurb.it
27th February 2020 04:13:08 PM 	 userid: 11039			grade: 100 		completion: 2		carmela.sapatiello64@gmail.com
27th February 2020 04:13:08 PM 	 userid: 10757			grade: 100 		completion: 2		mariagrazia.esposito60@gmail.com
27th February 2020 04:13:08 PM 	 userid: 10570			grade: 100 		completion: 2		lina.sirignano2@libero.it
27th February 2020 04:13:08 PM 	 userid: 11055			grade: 100 		completion: 2		francanapolitano2011@libero.it
27th February 2020 04:13:08 PM 	 userid: 10762			grade: 100 		completion: 2		vincenzarusso24@hotmail.com
27th February 2020 04:13:08 PM 	 userid: 10760			grade: 100 		completion: 2		lettmus@libero.it
27th February 2020 04:13:08 PM 	 userid: 11056			grade: 100 		completion: 2		angela.radice2019@virgilio.it
27th February 2020 04:13:08 PM 	 userid: 10756			grade: 100 		completion: 2		michelinapirolo@gmail.com
27th February 2020 04:13:08 PM 	 userid: 10759			grade: 100 		completion: 2		stompanato55@alice.it
27th February 2020 04:13:08 PM 	 userid: 10333			grade: 100 		completion: 2		rosa.alba61@hotmail.it
27th February 2020 04:13:08 PM 	 userid: 10332			grade: 100 		completion: 2		enzo_buonomo@alice.it
27th February 2020 04:13:08 PM 	 userid: 10339			grade: 100 		completion: 2		ida.renella@libero.it
27th February 2020 04:13:08 PM 	 userid: 10329			grade: 100 		completion: 2		rosatanzillo03@gmail.com
27th February 2020 04:13:08 PM 	 userid: 10343			grade: 100 		completion: 2		lucia.villani1@libero.it
27th February 2020 04:13:08 PM 	 userid: 10477			grade: 100 		completion: 2		sorianoassunta@yahoo.it
27th February 2020 04:13:08 PM 	 userid: 2175			grade: 100 		completion: 2		alfonsinacinzia.troisi@istruzione.it
27th February 2020 04:13:08 PM 	 userid: 10335			grade: 100 		completion: 2		cannavacciuolo.maddalena@hotmail.it
27th February 2020 04:13:08 PM 	 userid: 10753			grade: 100 		completion: 2		zuccalarosetta@libero.it
27th February 2020 04:13:08 PM 	 userid: 10572			grade: 100 		completion: 2		stefycarotenuto@virgilio.it
27th February 2020 04:13:08 PM 	 userid: 10351			grade: 100 		completion: 2		attanasioangelina68@gmail.com
27th February 2020 04:13:08 PM 	 userid: 10735			grade: 100 		completion: 2		cristinaspadacenta@libero.it
27th February 2020 04:13:08 PM 	 userid: 10965			grade: 100 		completion: 2		mariadechiara1961@libero.it
27th February 2020 04:13:08 PM 	 userid: 10758			grade: 100 		completion: 2		maddy30868@hotmail.it
27th February 2020 04:13:08 PM 	 userid: 11010			grade: 100 		completion: 2		vendramin.sandra@icpaese.it
27th February 2020 04:13:08 PM 	 userid: 10658			grade: 100 		completion: 2		iolefox70@gmail.com
27th February 2020 04:13:08 PM 	 userid: 10553			grade: 100 		completion: 2		margheritaercolano@outlook.it
27th February 2020 04:13:08 PM 	 userid: 11076			grade: 100 		completion: 2		florence.geraci63@libero.it
27th February 2020 04:13:08 PM 	 userid: 5080			grade: 100 		completion: 2		giorgiaemma.catania@istruzione.it
27th February 2020 04:13:08 PM 	 userid: 14935			grade: 100 		completion: 2		mariagiovanna.esposito@istruzione.it
27th February 2020 04:13:08 PM 	 userid: 10829			grade: 100 		completion: 2		e.benvenuti3@campus.uniurb.it
27th February 2020 04:13:08 PM 	 userid: 11060			grade: 100 		completion: 2		bicetarantelli@gmail.com
27th February 2020 04:13:08 PM 	 userid: 4959			grade: 100 		completion: 2		scubalu.milani@gmail.com
27th February 2020 04:13:08 PM 	 userid: 11154			grade: 100 		completion: 2		ranadavide@gmail.com
27th February 2020 04:13:08 PM 	 userid: 11156			grade: 100 		completion: 2		migliacciocarla@libero.it
27th February 2020 04:13:08 PM 	 userid: 11059			grade: 100 		completion: 2		margherita.dipietro1@gmail.com
27th February 2020 04:13:08 PM 	 userid: 9302			grade: 100 		completion: 2		deste1959@libero.it
27th February 2020 04:13:08 PM 	 userid: 10924			grade: 100 		completion: 2		ludofede0@gmail.com
27th February 2020 04:13:08 PM 	 userid: 11015			grade: 100 		completion: 2		caravaggiarianna@gmail.com
27th February 2020 04:13:08 PM 	 userid: 2205			grade: 100 		completion: 2		monicanobile70@gmail.com
27th February 2020 04:13:08 PM 	 userid: 8156			grade: 100 		completion: 2		maestra.mpm@gmail.com
27th February 2020 04:13:08 PM 	 userid: 11203			grade: 100 		completion: 2		annaritasiano@alice.it
27th February 2020 04:13:08 PM 	 userid: 11104			grade: 100 		completion: 2		fiorenzo.trezza@gmail.com
27th February 2020 04:13:08 PM 	 userid: 5473			grade: 100 		completion: 2		soniabernardini0@gmail.com
27th February 2020 04:13:08 PM 	 userid: 10142			grade: 100 		completion: 2		barlira94@gmail.com
27th February 2020 04:13:08 PM 	 userid: 1025			grade: 100 		completion: 2		viviana-villa@libero.it
27th February 2020 04:13:08 PM 	 userid: 11098			grade: 100 		completion: 2		elenasavoia2@gmail.com
27th February 2020 04:13:08 PM 	 userid: 3133			grade: 100 		completion: 2		superelly87@yahoo.it
27th February 2020 04:13:08 PM 	 userid: 11202			grade: 100 		completion: 2		manuelafragale@virgilio.it
27th February 2020 04:13:08 PM 	 userid: 7306			grade: 100 		completion: 2		antoniasalvatokr@gmail.com
27th February 2020 04:13:08 PM 	 userid: 10662			grade: 100 		completion: 2		a.zacchilli1@campus.uniurb.it
27th February 2020 04:13:08 PM 	 userid: 11141			grade: 100 		completion: 2		scgina282@gmail.com
27th February 2020 04:13:08 PM 	 userid: 10117			grade: 100 		completion: 2		folletancry@gmail.com
27th February 2020 04:13:08 PM 	 userid: 11214			grade: 100 		completion: 2		abc_silvia@yahoo.it
27th February 2020 04:13:08 PM 	 userid: 11014			grade: 100 		completion: 2		l.martinangeli@campus.uniurb.it
27th February 2020 04:13:08 PM 	 userid: 11191			grade: 100 		completion: 2		manuela.68@live.it
27th February 2020 04:13:08 PM 	 userid: 11133			grade: 100 		completion: 2		tizytrot68@gmail.com
27th February 2020 04:13:08 PM 	 userid: 11223			grade: 100 		completion: 2		g.nardini2@campus.uniurb.it
27th February 2020 04:13:08 PM 	 userid: 9873			grade: 100 		completion: 2		f.liuzzo@alice.it
27th February 2020 04:13:08 PM 	 userid: 9609			grade: 100 		completion: 2		a.tonini3@campus.uniurb.it
27th February 2020 04:13:08 PM 	 userid: 11933			grade: 100 		completion: 2		lucia.zucchi@hotmail.it
27th February 2020 04:13:08 PM 	 userid: 8889			grade: 100 		completion: 2		danielarabbito70@gmail.com
27th February 2020 04:13:08 PM 	 userid: 3715			grade: 100 		completion: 2		a.rizzo16@campus.uniurb.it
27th February 2020 04:13:08 PM 	 userid: 13334			grade: 100 		completion: 2		marta_921@alice.it
27th February 2020 04:13:08 PM 	 userid: 11264			grade: 100 		completion: 2		f.butrico@campus.uniurb.it
27th February 2020 04:13:08 PM 	 userid: 11222			grade: 100 		completion: 2		amatruda.andrea@gmail.com
27th February 2020 04:13:08 PM 	 userid: 11306			grade: 100 		completion: 2		bpetrecca@gmail.com
27th February 2020 04:13:08 PM 	 userid: 10428			grade: 100 		completion: 2		e.cukali@campus.uniurb.it
27th February 2020 04:13:08 PM 	 userid: 1563			grade: 100 		completion: 2		m.angela.deriu@gmail.com
27th February 2020 04:13:08 PM 	 userid: 10623			grade: 100 		completion: 2		l.giommi3@campus.uniurb.it
27th February 2020 04:13:08 PM 	 userid: 11299			grade: 100 		completion: 2		nicoletta.armenante@gmail.com
27th February 2020 04:13:08 PM 	 userid: 11322			grade: 100 		completion: 2		annunziata.contino@libero.it
27th February 2020 04:13:08 PM 	 userid: 11269			grade: 100 		completion: 2		mariaritaabatino99@yahoo.com
27th February 2020 04:13:08 PM 	 userid: 10436			grade: 100 		completion: 2		mrracchi85@gmail.com
27th February 2020 04:13:08 PM 	 userid: 11339			grade: 100 		completion: 2		annag19@libero.it
27th February 2020 04:13:08 PM 	 userid: 11210			grade: 100 		completion: 2		claudia_meneghetti@yahoo.it
27th February 2020 04:13:08 PM 	 userid: 11363			grade: 100 		completion: 2		grazia.musmeci@istruzione.it
27th February 2020 04:13:08 PM 	 userid: 10615			grade: 100 		completion: 2		emanuela.nieddu@ic1portotorres.it
27th February 2020 04:13:08 PM 	 userid: 9193			grade: 100 		completion: 2		m.rossi101@campus.uniurb.it
27th February 2020 04:13:08 PM 	 userid: 2895			grade: 100 		completion: 2		tiziana.capasso@libero.it
27th February 2020 04:13:08 PM 	 userid: 9161			grade: 100 		completion: 2		d.farinelli1@campus.uniurb.it
27th February 2020 04:13:08 PM 	 userid: 10843			grade: 100 		completion: 2		d.smacchia2@campus.uniurb.it
27th February 2020 04:13:08 PM 	 userid: 11428			grade: 100 		completion: 2		k.attarantato@campus.uniurb.it
27th February 2020 04:13:08 PM 	 userid: 9262			grade: 100 		completion: 2		d.nicolosi@campus.uniurb.it
27th February 2020 04:13:08 PM 	 userid: 9162			grade: 100 		completion: 2		silvia.franco.0810@gmail.com
27th February 2020 04:13:08 PM 	 userid: 10814			grade: 100 		completion: 2		n.lazzari2@campus.uniurb.it
27th February 2020 04:13:08 PM 	 userid: 10582			grade: 100 		completion: 2		m.breccia3@campus.uniurb.it
27th February 2020 04:13:08 PM 	 userid: 9215			grade: 100 		completion: 2		m.dilorenzi@campus.uniurb.it
27th February 2020 04:13:08 PM 	 userid: 11016			grade: 100 		completion: 2		teresa.martin2012@gmail.com
27th February 2020 04:13:08 PM 	 userid: 9225			grade: 100 		completion: 2		f.pomilio@campus.uniurb.it
27th February 2020 04:13:08 PM 	 userid: 12665			grade: 100 		completion: 2		raffygentil@gmail.com
27th February 2020 04:13:08 PM 	 userid: 10116			grade: 100 		completion: 2		vitodomenico.salvaggio@istruzione.it
27th February 2020 04:13:08 PM 	 userid: 7491			grade: 100 		completion: 2		rosanna.rizzi@gmail.com
27th February 2020 04:13:08 PM 	 userid: 8608			grade: 100 		completion: 2		marianna172@alice.it
27th February 2020 04:13:08 PM 	 userid: 10630			grade: 100 		completion: 2		l.pugnali@campus.uniurb.it
27th February 2020 04:13:08 PM 	 userid: 7824			grade: 100 		completion: 2		laury_16@hotmail.it
27th February 2020 04:13:08 PM 	 userid: 10596			grade: 100 		completion: 2		n.roti@campus.uniurb.it
27th February 2020 04:13:08 PM 	 userid: 11328			grade: 100 		completion: 2		antonio.cardellini@hotmail.com
27th February 2020 04:13:08 PM 	 userid: 10633			grade: 100 		completion: 2		m.fiala@campus.uniurb.it
27th February 2020 04:13:08 PM 	 userid: 11484			grade: 100 		completion: 2		lediothegod@gmail.com
27th February 2020 04:13:08 PM 	 userid: 5237			grade: 100 		completion: 2		moferro81@gmail.com
27th February 2020 04:13:08 PM 	 userid: 9509			grade: 100 		completion: 2		l.procicchiani@campus.uniurb.it
27th February 2020 04:13:08 PM 	 userid: 11095			grade: 100 		completion: 2		s.monti4@campus.uniurb.it
27th February 2020 04:13:08 PM 	 userid: 11559			grade: 100 		completion: 2		federicopisajob@gmail.com
27th February 2020 04:13:08 PM 	 userid: 11507			grade: 100 		completion: 2		b.steenbergen@campus.uniurb.it
27th February 2020 04:13:08 PM 	 userid: 558			grade: 100 		completion: 2		giuliana.mauro@gmail.com
27th February 2020 04:13:08 PM 	 userid: 15066			grade: 100 		completion: 2		lisap_92@hotmail.it
27th February 2020 04:13:08 PM 	 userid: 9237			grade: 100 		completion: 2		m.corbelli7@campus.uniurb.it
27th February 2020 04:13:08 PM 	 userid: 9222			grade: 100 		completion: 2		d.polidori@campus.uniurb.it
27th February 2020 04:13:08 PM 	 userid: 11610			grade: 100 		completion: 2		c.quattrone@campus.uniurb.it
27th February 2020 04:13:08 PM 	 userid: 10580			grade: 100 		completion: 2		l.franchi5@campus.uniurb.it
27th February 2020 04:13:08 PM 	 userid: 10728			grade: 100 		completion: 2		c.musa@campus.uniurb.it
27th February 2020 04:13:08 PM 	 userid: 11618			grade: 100 		completion: 2		c.scarna@campus.uniurb.it
27th February 2020 04:13:08 PM 	 userid: 11994			grade: 100 		completion: 2		mariaplatto.platto7@gmail.com
27th February 2020 04:13:08 PM 	 userid: 11839			grade: 100 		completion: 2		distasiolina@gmail.com
27th February 2020 04:13:08 PM 	 userid: 11605			grade: 100 		completion: 2		k.gargamelli@campus.uniurb.it
27th February 2020 04:13:08 PM 	 userid: 11438			grade: 100 		completion: 2		a.bernardi12@campus.uniurb.it
27th February 2020 04:13:08 PM 	 userid: 11293			grade: 100 		completion: 2		l.gambino1@campus.uniurb.it
27th February 2020 04:13:08 PM 	 userid: 9227			grade: 100 		completion: 2		m.donati20@campus.uniurb.it
27th February 2020 04:13:08 PM 	 userid: 11627			grade: 100 		completion: 2		napo9829@gmail.com
27th February 2020 04:13:08 PM 	 userid: 7694			grade: 100 		completion: 2		valentina.zambelli@icortonovo.gov.it
27th February 2020 04:13:08 PM 	 userid: 13925			grade: 100 		completion: 2		marta.benedetti1988@gmail.com
27th February 2020 04:13:08 PM 	 userid: 11278			grade: 100 		completion: 2		i.condrea@campus.uniurb.it
27th February 2020 04:13:08 PM 	 userid: 12783			grade: 100 		completion: 2		orny56@gmail.com
27th February 2020 04:13:08 PM 	 userid: 9265			grade: 100 		completion: 2		a.persici@campus.uniurb.it
27th February 2020 04:13:08 PM 	 userid: 10378			grade: 100 		completion: 2		a.colino@campus.uniurb.it
27th February 2020 04:13:08 PM 	 userid: 11265			grade: 100 		completion: 2		a.basili7@campus.uniurb.it
27th February 2020 04:13:08 PM 	 userid: 10590			grade: 100 		completion: 2		j.mengarelli@campus.uniurb.it
27th February 2020 04:13:08 PM 	 userid: 11028			grade: 100 		completion: 2		f.giacchetti1@campus.uniurb.it
27th February 2020 04:13:08 PM 	 userid: 8933			grade: 100 		completion: 2		luciarocca62@gmail.com
27th February 2020 04:13:08 PM 	 userid: 9233			grade: 100 		completion: 2		i.baddis@campus.uniurb.it
27th February 2020 04:13:08 PM 	 userid: 11038			grade: 100 		completion: 2		g.roselli1@campus.uniurb.it
27th February 2020 04:13:08 PM 	 userid: 11211			grade: 100 		completion: 2		a.buratti4@campus.uniurb.it
27th February 2020 04:13:08 PM 	 userid: 14231			grade: 100 		completion: 2		ilaria.minucci.7@gmail.com
27th February 2020 04:13:08 PM 	 userid: 11498			grade: 100 		completion: 2		g.gaudini@campus.uniurb.it
27th February 2020 04:13:08 PM 	 userid: 11567			grade: 100 		completion: 2		r.agostini5@campus.uniurb.it
27th February 2020 04:13:08 PM 	 userid: 9523			grade: 100 		completion: 2		v.marguglio@campus.uniurb.it
27th February 2020 04:13:08 PM 	 userid: 11664			grade: 100 		completion: 2		f.ducci2@campus.uniurb.it
27th February 2020 04:13:08 PM 	 userid: 11047			grade: 100 		completion: 2		a.bernardini18@campus.uniurb.it
27th February 2020 04:13:08 PM 	 userid: 11719			grade: 100 		completion: 2		cap.rob@live.it
27th February 2020 04:13:08 PM 	 userid: 11111			grade: 100 		completion: 2		pierpalm@libero.it
27th February 2020 04:13:08 PM 	 userid: 11161			grade: 100 		completion: 2		simonella.la17@gmail.com
27th February 2020 04:13:08 PM 	 userid: 11811			grade: 100 		completion: 2		g.gabrielli4@campus.uniurb.it
27th February 2020 04:13:08 PM 	 userid: 9530			grade: 100 		completion: 2		pivari@gmail.com
27th February 2020 04:13:08 PM 	 userid: 11934			grade: 100 		completion: 2		monica.dalus@istitutocomprensivocortina.it
27th February 2020 04:13:08 PM 	 userid: 211			grade: 100 		completion: 2		alessandra.maestra@gmail.com
27th February 2020 04:13:08 PM 	 userid: 1329			grade: 100 		completion: 2		tizianaleonardo@gmail.com
27th February 2020 04:13:08 PM 	 userid: 11761			grade: 100 		completion: 2		f.pirani5@campus.uniurb.it
27th February 2020 04:13:08 PM 	 userid: 11381			grade: 100 		completion: 2		tubo.22@hotmail.it
27th February 2020 04:13:08 PM 	 userid: 4128			grade: 100 		completion: 2		caterinalzz@gmail.com
27th February 2020 04:13:08 PM 	 userid: 11731			grade: 100 		completion: 2		f.ortolani1@campus.uniurb.it
27th February 2020 04:13:08 PM 	 userid: 7668			grade: 100 		completion: 2		vito.migliore@gmail.com
27th February 2020 04:13:08 PM 	 userid: 11671			grade: 100 		completion: 2		ell.salami79@gmail.com
27th February 2020 04:13:08 PM 	 userid: 11667			grade: 100 		completion: 2		melinagiaimo@libero.it
27th February 2020 04:13:08 PM 	 userid: 8389			grade: 100 		completion: 2		velka82@libero.it
27th February 2020 04:13:08 PM 	 userid: 1359			grade: 100 		completion: 2		tiziana.ianniello02@gmail.com
27th February 2020 04:13:08 PM 	 userid: 11760			grade: 100 		completion: 2		mecenerogiliola@gmail.com
27th February 2020 04:13:08 PM 	 userid: 11728			grade: 100 		completion: 2		i_paulinich@virgilio.it
27th February 2020 04:13:08 PM 	 userid: 11710			grade: 100 		completion: 2		lagattalina@hotmail.it
27th February 2020 04:13:08 PM 	 userid: 11780			grade: 100 		completion: 2		w.scano@campus.uniurb.it
27th February 2020 04:13:08 PM 	 userid: 11738			grade: 100 		completion: 2		labsoft.sapri@gmail.com
27th February 2020 04:13:08 PM 	 userid: 11624			grade: 100 		completion: 2		baiamontepietro@libero.it
27th February 2020 04:13:08 PM 	 userid: 10826			grade: 100 		completion: 2		cristina.scaramucci@virgilio.it
27th February 2020 04:13:08 PM 	 userid: 11788			grade: 100 		completion: 2		u.trozzi@campus.uniurb.it
27th February 2020 04:13:08 PM 	 userid: 3610			grade: 100 		completion: 2		rosettavezzola@gmail.com
27th February 2020 04:13:08 PM 	 userid: 10664			grade: 100 		completion: 2		e.galantini1@campus.uniurb.it
27th February 2020 04:13:08 PM 	 userid: 10959			grade: 100 		completion: 2		r.gentilucci1@campus.uniurb.it
27th February 2020 04:13:08 PM 	 userid: 14701			grade: 100 		completion: 2		fiordiluce@libero.it
27th February 2020 04:13:08 PM 	 userid: 11824			grade: 100 		completion: 2		feroleto@libero.it
27th February 2020 04:13:08 PM 	 userid: 11745			grade: 100 		completion: 2		alessandra.albizzati@gmail.com
27th February 2020 04:13:08 PM 	 userid: 9203			grade: 100 		completion: 2		mariagrazia.lauri62@gmail.com
27th February 2020 04:13:08 PM 	 userid: 8211			grade: 100 		completion: 2		erminiadaidone6@gmail.com
27th February 2020 04:13:08 PM 	 userid: 4189			grade: 100 		completion: 2		lia.camozzi@tiscali.it
27th February 2020 04:13:08 PM 	 userid: 305			grade: 100 		completion: 2		ccasertano@yahoo.it
27th February 2020 04:13:08 PM 	 userid: 944			grade: 100 		completion: 2		cristiana.cielo@gmail.com
27th February 2020 04:13:08 PM 	 userid: 11729			grade: 100 		completion: 2		giovanna@jcn.it
27th February 2020 04:13:08 PM 	 userid: 214			grade: 100 		completion: 2		delbenesara@yahoo.it
27th February 2020 04:13:08 PM 	 userid: 11829			grade: 100 		completion: 2		daniela78noia@gmail.com
27th February 2020 04:13:08 PM 	 userid: 5563			grade: 100 		completion: 2		vincenzarinaldi@gmail.com
27th February 2020 04:13:08 PM 	 userid: 3963			grade: 100 		completion: 2		patrizia.civa@istruzione.it
27th February 2020 04:13:08 PM 	 userid: 3877			grade: 100 		completion: 2		federicachiodo@libero.it
27th February 2020 04:13:08 PM 	 userid: 4996			grade: 100 		completion: 2		baschieri.ilaria@gmail.com
27th February 2020 04:13:08 PM 	 userid: 8347			grade: 100 		completion: 2		cinzialorenzi93@gmail.com
27th February 2020 04:13:08 PM 	 userid: 927			grade: 100 		completion: 2		manuelapettinari66@gmail.com
27th February 2020 04:13:08 PM 	 userid: 11965			grade: 100 		completion: 2		antonellacavallin@ic2castelfranco.it
27th February 2020 04:13:08 PM 	 userid: 10811			grade: 100 		completion: 2		g.ciancaglini@gmail.com
27th February 2020 04:13:08 PM 	 userid: 9296			grade: 100 		completion: 2		alexfrrx69@gmail.com
27th February 2020 04:13:08 PM 	 userid: 796			grade: 100 		completion: 2		trassuntabu@hotmail.com
27th February 2020 04:13:08 PM 	 userid: 12416			grade: 100 		completion: 2		lybrarsi@email.it
27th February 2020 04:13:08 PM 	 userid: 6976			grade: 100 		completion: 2		p.anniballi@libero.it
27th February 2020 04:13:08 PM 	 userid: 10454			grade: 100 		completion: 2		antonellamaddaloni@icloud.com
27th February 2020 04:13:08 PM 	 userid: 11608			grade: 100 		completion: 2		facincani.arteferro@gmail.com
27th February 2020 04:13:08 PM 	 userid: 11954			grade: 100 		completion: 2		dani_db@hotmail.it
27th February 2020 04:13:08 PM 	 userid: 11387			grade: 100 		completion: 2		feachiara@libero.it
27th February 2020 04:13:08 PM 	 userid: 463			grade: 100 		completion: 2		sarazan7@gmail.com
27th February 2020 04:13:08 PM 	 userid: 11374			grade: 100 		completion: 2		ipontel@yahoo.com
27th February 2020 04:13:08 PM 	 userid: 12013			grade: 100 		completion: 2		susy.df@gmail.com
27th February 2020 04:13:08 PM 	 userid: 11983			grade: 100 		completion: 2		filomena.innone@outlook.it
27th February 2020 04:13:08 PM 	 userid: 11991			grade: 100 		completion: 2		claudialicari@gmail.com
27th February 2020 04:13:08 PM 	 userid: 11695			grade: 100 		completion: 2		flavia.cioppi@icvillasanmartino.it
27th February 2020 04:13:08 PM 	 userid: 12217			grade: 100 		completion: 2		anna.levrero@gmail.com
27th February 2020 04:13:08 PM 	 userid: 12880			grade: 100 		completion: 2		emanuelaciani76@gmail.com
27th February 2020 04:13:08 PM 	 userid: 5376			grade: 100 		completion: 2		eleonora.capannolo@gmail.com
27th February 2020 04:13:08 PM 	 userid: 11555			grade: 100 		completion: 2		dexi.m@libero.it
27th February 2020 04:13:08 PM 	 userid: 12096			grade: 100 		completion: 2		maria.salvatori@icrussi.istruzioneer.it
27th February 2020 04:13:08 PM 	 userid: 11906			grade: 100 		completion: 2		elena.pellegrini66@gmail.com
27th February 2020 04:13:08 PM 	 userid: 11941			grade: 100 		completion: 2		alessandrare@alice.it
27th February 2020 04:13:08 PM 	 userid: 12014			grade: 100 		completion: 2		nicoletta.dalmas@gmail.com
27th February 2020 04:13:08 PM 	 userid: 11977			grade: 100 		completion: 2		rossana.stuani@istruzione.it
27th February 2020 04:13:08 PM 	 userid: 577			grade: 100 		completion: 2		rossella.iaco@gmail.com
27th February 2020 04:13:08 PM 	 userid: 12122			grade: 100 		completion: 2		maratoffolo74@gmail.com
27th February 2020 04:13:08 PM 	 userid: 11833			grade: 100 		completion: 2		elisabetta.bandera@libero.it
27th February 2020 04:13:08 PM 	 userid: 12141			grade: 100 		completion: 2		luciozippa@gmail.com
27th February 2020 04:13:08 PM 	 userid: 13752			grade: 100 		completion: 2		m.cunietti@campus.uniurb.it
27th February 2020 04:13:08 PM 	 userid: 2512			grade: 100 		completion: 2		liana.contardi@gmail.com
27th February 2020 04:13:08 PM 	 userid: 11145			grade: 100 		completion: 2		ritabonilauri@gmail.com
27th February 2020 04:13:08 PM 	 userid: 12240			grade: 100 		completion: 2		cristinasca25@gmail.com
27th February 2020 04:13:08 PM 	 userid: 1042			grade: 100 		completion: 2		larisa3113@inwind.it
27th February 2020 04:13:08 PM 	 userid: 4069			grade: 100 		completion: 2		laura.riassetto@alice.it
27th February 2020 04:13:08 PM 	 userid: 5727			grade: 100 		completion: 2		francylu.cap@libero.it
27th February 2020 04:13:08 PM 	 userid: 11989			grade: 100 		completion: 2		donata.nicetto@gmail.com
27th February 2020 04:13:08 PM 	 userid: 12237			grade: 100 		completion: 2		giulio.corticelli@gmail.com
27th February 2020 04:13:08 PM 	 userid: 11908			grade: 100 		completion: 2		grimaldi.antonietta@gmail.com
27th February 2020 04:13:08 PM 	 userid: 12177			grade: 100 		completion: 2		mariangelagiglio@yahoo.it
27th February 2020 04:13:08 PM 	 userid: 12520			grade: 100 		completion: 2		n.latini@campus.uniurb.it
27th February 2020 04:13:08 PM 	 userid: 13235			grade: 100 		completion: 2		deborasanna@live.com
27th February 2020 04:13:08 PM 	 userid: 8626			grade: 100 		completion: 2		laurapovoleri@virgilio.it
27th February 2020 04:13:08 PM 	 userid: 12202			grade: 100 		completion: 2		bertolinigiulia0@gmail.com
27th February 2020 04:13:08 PM 	 userid: 11236			grade: 100 		completion: 2		michela.me73@gmail.com
27th February 2020 04:13:08 PM 	 userid: 9467			grade: 100 		completion: 2		m.dibucchianico@campus.uniurb.it
27th February 2020 04:13:08 PM 	 userid: 12125			grade: 100 		completion: 2		valeria.albanese90@libero.it
27th February 2020 04:13:08 PM 	 userid: 11717			grade: 100 		completion: 2		aleluisato@gmail.com
27th February 2020 04:13:08 PM 	 userid: 11799			grade: 100 		completion: 2		danielec3@libero.it
27th February 2020 04:13:08 PM 	 userid: 11766			grade: 100 		completion: 2		raffaelli2003@yahoo.it
27th February 2020 04:13:08 PM 	 userid: 12204			grade: 100 		completion: 2		silviazitti@virgilio.it
27th February 2020 04:13:08 PM 	 userid: 12313			grade: 100 		completion: 2		eleonoramcanepa@gmail.com
27th February 2020 04:13:08 PM 	 userid: 13616			grade: 100 		completion: 2		assuntascarano@icbazzanomonteveglio.gov.it
27th February 2020 04:13:08 PM 	 userid: 14271			grade: 100 		completion: 2		erika.esposti92@gmail.com
27th February 2020 04:13:08 PM 	 userid: 12321			grade: 100 		completion: 2		f.salvo@campus.uniurb.it
27th February 2020 04:13:08 PM 	 userid: 1988			grade: 100 		completion: 2		lucia.baldasseroni@libero.it
27th February 2020 04:13:08 PM 	 userid: 11892			grade: 100 		completion: 2		c.lotti2@campus.uniurb.it
27th February 2020 04:13:08 PM 	 userid: 12316			grade: 100 		completion: 2		d_pessina@yahoo.it
27th February 2020 04:13:08 PM 	 userid: 10438			grade: 100 		completion: 2		delcuratolotiziana@gmail.com
27th February 2020 04:13:08 PM 	 userid: 5752			grade: 100 		completion: 2		mitu.kiss@gmail.com
27th February 2020 04:13:08 PM 	 userid: 6428			grade: 100 		completion: 2		pertosap@icloud.com
27th February 2020 04:13:08 PM 	 userid: 12365			grade: 100 		completion: 2		pamela.maccarelli@gmail.com
27th February 2020 04:13:08 PM 	 userid: 6139			grade: 100 		completion: 2		donatella.sinisi1@istruzione.it
27th February 2020 04:13:08 PM 	 userid: 10056			grade: 100 		completion: 2		maria.ruggiero61@istruzione.it
27th February 2020 04:13:08 PM 	 userid: 12305			grade: 100 		completion: 2		stefaniavela@gmail.com
27th February 2020 04:13:08 PM 	 userid: 574			grade: 100 		completion: 2		ebanzola@libero.it
27th February 2020 04:13:08 PM 	 userid: 12371			grade: 100 		completion: 2		iavarazzoanna@tiscali.it
27th February 2020 04:13:08 PM 	 userid: 4830			grade: 100 		completion: 2		marinabarattini@libero.it
27th February 2020 04:13:08 PM 	 userid: 12420			grade: 100 		completion: 2		myluzip@gmail.com
27th February 2020 04:13:08 PM 	 userid: 9242			grade: 100 		completion: 2		leilacaraffini@gmail.com
27th February 2020 04:13:08 PM 	 userid: 12413			grade: 100 		completion: 2		rorotondi@gmail.com
27th February 2020 04:13:08 PM 	 userid: 1157			grade: 100 		completion: 2		saturnobolano@gmail.com
27th February 2020 04:13:08 PM 	 userid: 12179			grade: 100 		completion: 2		katialorenzini@hotmail.com
27th February 2020 04:13:08 PM 	 userid: 12495			grade: 100 		completion: 2		makie.messer@gmail.com
27th February 2020 04:13:08 PM 	 userid: 11893			grade: 100 		completion: 2		chiaracorsi1993@gmail.com
27th February 2020 04:13:08 PM 	 userid: 4659			grade: 100 		completion: 2		liviapranteddu@gmail.com
27th February 2020 04:13:08 PM 	 userid: 12338			grade: 100 		completion: 2		taninadocente@gmail.com
27th February 2020 04:13:08 PM 	 userid: 12071			grade: 100 		completion: 2		patrizia.ravizza@gmail.com
27th February 2020 04:13:08 PM 	 userid: 5251			grade: 100 		completion: 2		fre.amadei@gmail.com
27th February 2020 04:13:08 PM 	 userid: 220			grade: 100 		completion: 2		alassio@exallievidonbosco.it
27th February 2020 04:13:08 PM 	 userid: 4775			grade: 100 		completion: 2		susanmarchetti71@gmail.com
27th February 2020 04:13:08 PM 	 userid: 6011			grade: 100 		completion: 2		antoniosergio.palmeri@gmail.com
27th February 2020 04:13:08 PM 	 userid: 13728			grade: 100 		completion: 2		giovanna.callegari@scuole.provincia.tn.it
27th February 2020 04:13:08 PM 	 userid: 12378			grade: 100 		completion: 2		daddadist@gmail.com
27th February 2020 04:13:08 PM 	 userid: 9085			grade: 100 		completion: 2		elisa.isabella@istruzione.it
27th February 2020 04:13:08 PM 	 userid: 1259			grade: 100 		completion: 2		kris.70@tiscali.it
27th February 2020 04:13:08 PM 	 userid: 11948			grade: 100 		completion: 2		pellegrinisimona70@gmail.com
27th February 2020 04:13:08 PM 	 userid: 12534			grade: 100 		completion: 2		morronevx@gmail.com
27th February 2020 04:13:08 PM 	 userid: 12650			grade: 100 		completion: 2		m.sculco@libero.it
27th February 2020 04:13:08 PM 	 userid: 12537			grade: 100 		completion: 2		elenasan2004@libero.it
27th February 2020 04:13:08 PM 	 userid: 7938			grade: 100 		completion: 2		orietta.raso@hotmail.it
27th February 2020 04:13:08 PM 	 userid: 12432			grade: 100 		completion: 2		fdallavecchia@inwind.it
27th February 2020 04:13:08 PM 	 userid: 12602			grade: 100 		completion: 2		aprile.graziella@istitutocomprensivosarzana.edu.it
27th February 2020 04:13:08 PM 	 userid: 12543			grade: 100 		completion: 2		danielaromano69@gmail.com
27th February 2020 04:13:08 PM 	 userid: 11718			grade: 100 		completion: 2		mikelagaeta@gmail.com
27th February 2020 04:13:08 PM 	 userid: 13726			grade: 100 		completion: 2		annalisabua01@gmail.com
27th February 2020 04:13:08 PM 	 userid: 12771			grade: 100 		completion: 2		marcoguidotto@gmail.com
27th February 2020 04:13:08 PM 	 userid: 12679			grade: 100 		completion: 2		mariaelenaquero@gmail.com
27th February 2020 04:13:08 PM 	 userid: 9070			grade: 100 		completion: 2		michelamicheli72@gmail.com
27th February 2020 04:13:08 PM 	 userid: 10952			grade: 100 		completion: 2		desterosa@gmail.com
27th February 2020 04:13:08 PM 	 userid: 9474			grade: 100 		completion: 2		nerinapiccinato1@gmail.com
27th February 2020 04:13:08 PM 	 userid: 13504			grade: 100 		completion: 2		erica.ciceri@hotmail.com
27th February 2020 04:13:08 PM 	 userid: 13482			grade: 100 		completion: 2		stefaniacorti@icvicenza2.gov.it
27th February 2020 04:13:08 PM 	 userid: 4038			grade: 100 		completion: 2		sabinale92@gmail.com
27th February 2020 04:13:08 PM 	 userid: 13486			grade: 100 		completion: 2		chiaratomelleri@icvicenza2.gov.it
27th February 2020 04:13:08 PM 	 userid: 13771			grade: 100 		completion: 2		paolasilvia75@tiscali.it
27th February 2020 04:13:08 PM 	 userid: 13507			grade: 100 		completion: 2		martedebb@libero.it
27th February 2020 04:13:08 PM 	 userid: 3497			grade: 100 		completion: 2		laura.biancott@gmail.com
27th February 2020 04:13:08 PM 	 userid: 13603			grade: 100 		completion: 2		cavalloarianna@libero.it
27th February 2020 04:13:08 PM 	 userid: 12566			grade: 100 		completion: 2		fabio.ita@teletu.it
27th February 2020 04:13:08 PM 	 userid: 5410			grade: 100 		completion: 2		carlacitterio62@gmail.com
27th February 2020 04:13:08 PM 	 userid: 12040			grade: 100 		completion: 2		felice.caputi@istruzione.it
27th February 2020 04:13:08 PM 	 userid: 13435			grade: 100 		completion: 2		biyikliogretmenim@gmail.com
27th February 2020 04:13:08 PM 	 userid: 12470			grade: 100 		completion: 2		alice.voltan@yahoo.com
27th February 2020 04:13:08 PM 	 userid: 13790			grade: 100 		completion: 2		sml.martelli@gmail.com
27th February 2020 04:13:08 PM 	 userid: 12287			grade: 100 		completion: 2		k_giaccaglia@tiscali.it
27th February 2020 04:13:08 PM 	 userid: 12362			grade: 100 		completion: 2		eppauig@hotmail.com
27th February 2020 04:13:08 PM 	 userid: 13715			grade: 100 		completion: 2		nadia.sarchione@hotmail.it
27th February 2020 04:13:08 PM 	 userid: 13913			grade: 100 		completion: 2		ilaria@ircd.it
27th February 2020 04:13:08 PM 	 userid: 13692			grade: 100 		completion: 2		veronica.turnone@gmail.com
27th February 2020 04:13:08 PM 	 userid: 14036			grade: 100 		completion: 2		stefyloreto@gmail.com
27th February 2020 04:13:08 PM 	 userid: 7981			grade: 100 		completion: 2		roxyrad@gmail.com
27th February 2020 04:13:08 PM 	 userid: 13896			grade: 100 		completion: 2		attiliotrovato1993@gmail.com
27th February 2020 04:13:08 PM 	 userid: 12639			grade: 100 		completion: 2		mari.prof.maa@gmail.com
27th February 2020 04:13:08 PM 	 userid: 13946			grade: 100 		completion: 2		andrea.mammini@icsfdm.it
27th February 2020 04:13:08 PM 	 userid: 13572			grade: 100 		completion: 2		giadacavallo@libero.it
27th February 2020 04:13:08 PM 	 userid: 9020			grade: 100 		completion: 2		l.panariello@campus.uniurb.it
27th February 2020 04:13:08 PM 	 userid: 14024			grade: 100 		completion: 2		fabioveltri80@gmail.com
27th February 2020 04:13:08 PM 	 userid: 12291			grade: 100 		completion: 2		claudia.ometto@libero.it
27th February 2020 04:13:08 PM 	 userid: 13986			grade: 100 		completion: 2		lucyamuch@gmail.com
27th February 2020 04:13:08 PM 	 userid: 1860			grade: 100 		completion: 2		annacarla.geniali@scuole.provincia.tn.it
27th February 2020 04:13:08 PM 	 userid: 14007			grade: 100 		completion: 2		cadei.andrea@gmail.com
27th February 2020 04:13:08 PM 	 userid: 12681			grade: 100 		completion: 2		lamannanunzia@yahoo.it
27th February 2020 04:13:08 PM 	 userid: 13824			grade: 100 		completion: 2		mariagrazia.marchetto@icvaldagno2.it
27th February 2020 04:13:08 PM 	 userid: 1013			grade: 100 		completion: 2		s.stranieri@libero.it
27th February 2020 04:13:08 PM 	 userid: 14124			grade: 100 		completion: 2		agostinolarcara@gmail.com
27th February 2020 04:13:08 PM 	 userid: 13447			grade: 100 		completion: 2		danielatino80@gmail.com
27th February 2020 04:13:08 PM 	 userid: 14038			grade: 100 		completion: 2		giuseppe.papaleo@email.it
27th February 2020 04:13:08 PM 	 userid: 14286			grade: 100 		completion: 2		serena-21@libero.it
27th February 2020 04:13:08 PM 	 userid: 12812			grade: 100 		completion: 2		muraorietta@gmail.com
27th February 2020 04:13:08 PM 	 userid: 14308			grade: 100 		completion: 2		mciro1993@gmail.com
27th February 2020 04:13:08 PM 	 userid: 8447			grade: 100 		completion: 2		gerardo.dibenedetto@didasca.org
27th February 2020 04:13:08 PM 	 userid: 14370			grade: 100 		completion: 2		baldoletizia@gmail.com
27th February 2020 04:13:08 PM 	 userid: 11743			grade: 100 		completion: 2		mudagold78@gmail.com
27th February 2020 04:13:08 PM 	 userid: 14359			grade: 100 		completion: 2		trady@live.it
27th February 2020 04:13:08 PM 	 userid: 10923			grade: 100 		completion: 2		g.chiofalo@libero.it
27th February 2020 04:13:08 PM 	 userid: 14373			grade: 100 		completion: 2		gabrirusso@libero.it
27th February 2020 04:13:08 PM 	 userid: 14209			grade: 100 		completion: 2		arch.ilariarossi@libero.it
27th February 2020 04:13:08 PM 	 userid: 14340			grade: 100 		completion: 2		pierluigi.ferina@gmail.com
27th February 2020 04:13:08 PM 	 userid: 14312			grade: 100 		completion: 2		masary18@libero.it
27th February 2020 04:13:08 PM 	 userid: 14351			grade: 100 		completion: 2		evelina@extrade.it
27th February 2020 04:13:08 PM 	 userid: 14199			grade: 100 		completion: 2		rosetta.tardino@gmail.com
27th February 2020 04:13:08 PM 	 userid: 13767			grade: 100 		completion: 2		m.pulcinelli@campus.uniurb.it
27th February 2020 04:13:08 PM 	 userid: 14011			grade: 100 		completion: 2		maxciocca75@gmail.com
27th February 2020 04:13:08 PM 	 userid: 12758			grade: 100 		completion: 2		caterina.grasso@libero.it
27th February 2020 04:13:08 PM 	 userid: 14163			grade: 100 		completion: 2		erika_torre@virgilio.it
27th February 2020 04:13:08 PM 	 userid: 14344			grade: 100 		completion: 2		a.bernardini.md@gmail.com
27th February 2020 04:13:08 PM 	 userid: 12145			grade: 100 		completion: 2		rovena.mazza@gmail.com
27th February 2020 04:13:08 PM 	 userid: 444			grade: 100 		completion: 2		teachermary81@gmail.com
27th February 2020 04:13:08 PM 	 userid: 14579			grade: 100 		completion: 2		paola.maniotti@gmail.com
27th February 2020 04:13:08 PM 	 userid: 14633			grade: 100 		completion: 2		antonella.tamburro@hotmail.it
27th February 2020 04:13:08 PM 	 userid: 14654			grade: 100 		completion: 2		salvatoreingegna@libero.it
27th February 2020 04:13:08 PM 	 userid: 14640			grade: 100 		completion: 2		beatrice2.mauro@gmail.com
27th February 2020 04:13:08 PM 	 userid: 14621			grade: 100 		completion: 2		zanichelligabriella@yahoo.it
27th February 2020 04:13:08 PM 	 userid: 11313			grade: 100 		completion: 2		tamas@libero.it
27th February 2020 04:13:08 PM 	 userid: 7292			grade: 100 		completion: 2		soniladobi@yahoo.it
27th February 2020 04:13:08 PM 	 userid: 1510			grade: 100 		completion: 2		chiara.piga@tiscali.it
27th February 2020 04:13:08 PM 	 userid: 14674			grade: 100 		completion: 2		erika-esposti@libero.it
27th February 2020 04:13:08 PM 	 userid: 8761			grade: 100 		completion: 2		maestrafedeb@gmail.com
27th February 2020 04:13:08 PM 	 userid: 12127			grade: 100 		completion: 2		e.baraghini@campus.uniurb.it
27th February 2020 04:13:08 PM 	 userid: 13732			grade: 100 		completion: 2		fiorebaruffi@hotmail.it
27th February 2020 04:13:08 PM 	 userid: 6002			grade: 100 		completion: 2		moimorana@gmail.com
27th February 2020 04:13:08 PM 	 userid: 14343			grade: 100 		completion: 2		caterinamilone@alice.it
27th February 2020 04:13:08 PM 	 userid: 14669			grade: 100 		completion: 2		ericabelingheri35@gmail.com
27th February 2020 04:13:08 PM 	 userid: 14591			grade: 100 		completion: 2		alberica.moro@gmail.com
27th February 2020 04:13:08 PM 	 userid: 11302			grade: 100 		completion: 2		renataleanza.1708@gmail.com
27th February 2020 04:13:08 PM 	 userid: 14736			grade: 100 		completion: 2		m.tomassini16@campus.uniurb.it
27th February 2020 04:13:08 PM 	 userid: 6915			grade: 100 		completion: 2		vincyprencipe@gmail.com
27th February 2020 04:13:08 PM 	 userid: 13990			grade: 100 		completion: 2		attinian@gmail.com
27th February 2020 04:13:08 PM 	 userid: 14659			grade: 100 		completion: 2		enea.polliotto@gmail.com
27th February 2020 04:13:08 PM 	 userid: 14830			grade: 100 		completion: 2		graziana.schiavone@icgrassi.it
27th February 2020 04:13:08 PM 	 userid: 14700			grade: 100 		completion: 2		niki.niki896@gmail.com
27th February 2020 04:13:08 PM 	 userid: 14840			grade: 100 		completion: 2		santa.diguardo@yahoo.it
27th February 2020 04:13:08 PM 	 userid: 14374			grade: 100 		completion: 2		m.serafini12@campus.uniurb.it
27th February 2020 04:13:08 PM 	 userid: 10953			grade: 100 		completion: 2		filomenagaudiello@gmail.com
27th February 2020 04:13:08 PM 	 userid: 14657			grade: 100 		completion: 2		a.melnic@campus.uniurb.it
27th February 2020 04:13:08 PM 	 userid: 14920			grade: 100 		completion: 2		raffaella.paciolla@gmail.com
27th February 2020 04:13:08 PM 	 userid: 12525			grade: 100 		completion: 2		d.cioppi1@campus.uniurb.it
27th February 2020 04:13:08 PM 	 userid: 5945			grade: 100 		completion: 2		daniela.cornelio2@gmail.com
27th February 2020 04:13:08 PM 	 userid: 14862			grade: 100 		completion: 2		monica.corraini@gmail.com
27th February 2020 04:13:08 PM 	 userid: 15067			grade: 100 		completion: 2		damiana.agu@gmail.com
27th February 2020 04:13:08 PM 	 userid: 15062			grade: 100 		completion: 2		chiaraliberatore1@virgilio.it
27th February 2020 04:13:08 PM 	 userid: 15137			grade: 100 		completion: 2		dinachieffo1969@gmail.com
27th February 2020 04:13:08 PM 	 userid: 14574			grade: 100 		completion: 2		patrizia.raschietti@gmail.com
27th February 2020 04:13:08 PM 	 userid: 14952			grade: 100 		completion: 2		annaquarta24@gmail.com
27th February 2020 04:13:08 PM 	 userid: 8161			grade: 100 		completion: 2		angela.latini@yahoo.it
27th February 2020 04:13:08 PM 	 userid: 9185			grade: 100 		completion: 2		debora.macelloni@gmail.com
27th February 2020 04:13:08 PM 	 userid: 14740			grade: 100 		completion: 2		ribe.mail@libero.it
27th February 2020 04:13:08 PM 	 userid: 14981			grade: 100 		completion: 2		a.elidrissi@campus.uniurb.it
27th February 2020 04:13:08 PM 	 userid: 14822			grade: 100 		completion: 2		giuliana.varvaro@istruzione.it
27th February 2020 04:13:08 PM 	 userid: 13847			grade: 100 		completion: 2		rosaria.pesce68@gmail.com
27th February 2020 04:13:08 PM 	 userid: 7739			grade: 100 		completion: 2		annacruscomagno@yahoo.it
27th February 2020 04:13:08 PM 	 userid: 15148			grade: 100 		completion: 2		marinahast@alice.it